{
    "objectType": "Model",
    "version": "300",
    "model": {
        "outputName": "ft1484858971815",
        "updatedBy": 1,
        "isAtomicFinished": false,
        "isMissingFinished": false,
        "idConfiguration": 12,
        "active": true,
        "description": "DELTA3 Sample Model for Users",
        "updatedTS": "2017-01-23 17:42:04.0",
        "isSecondaryVirtualFinished": false,
        "idModel": 1,
        "createdTS": "2017-01-19 15:49:35.0",
        "isVirtualFinished": false,
        "idEntity": 105,
        "idGroup": 0,
        "processingId": "2017-01-23 14:27:40.491",
        "createdBy": 1,
        "organization": 1,
        "name": "DELTA3_SampleModel",
        "locked": false,
        "status": "Need Processing"
    },
    "modelTables": [
        {
            "updatedBy": 1,
            "physicalName": "sample_data1",
            "createdBy": 1,
            "name": "sample_data1",
            "active": true,
            "idModelTable": 350,
            "modelidModel": 105,
            "updatedTS": "2017-01-19 16:18:32.0",
            "createdTS": "2017-01-19 16:09:48.0",
            "primaryTable": true
        }
    ],
    "modelColumns": [
        {
            "sub": false,
            "keyField": false,
            "virtual": false,
            "updatedBy": 1,
            "virtualOrder": false,
            "verified": false,
            "active": true,
            "description": "",
            "fieldKind": "Dichotomous",
            "updatedTS": "2017-01-19 16:10:55.0",
            "type": "SMALLINT(6)",
            "fieldClass": "Risk Factor",
            "idModel": 105,
            "createdTS": "2017-01-19 16:10:32.0",
            "insertable": true,
            "rollup": false,
            "physicalName": "married",
            "createdBy": 1,
            "atomic": true,
            "name": "married",
            "formula": "",
            "idModelColumn": 1340,
            "modelTableidModelTable": 350
        },
        {
            "sub": false,
            "keyField": false,
            "virtual": false,
            "updatedBy": 1,
            "virtualOrder": false,
            "verified": false,
            "active": true,
            "description": "",
            "fieldKind": "Dichotomous",
            "updatedTS": "2017-01-19 16:11:13.0",
            "type": "SMALLINT(6)",
            "fieldClass": "Risk Factor",
            "idModel": 105,
            "createdTS": "2017-01-19 16:10:32.0",
            "insertable": true,
            "rollup": false,
            "physicalName": "gender_x",
            "createdBy": 1,
            "atomic": true,
            "name": "gender_x",
            "formula": "",
            "idModelColumn": 1341,
            "modelTableidModelTable": 350
        },
        {
            "sub": false,
            "keyField": false,
            "virtual": false,
            "updatedBy": 1,
            "virtualOrder": false,
            "verified": false,
            "active": true,
            "description": "",
            "fieldKind": "Continuous",
            "updatedTS": "2017-01-23 15:34:32.0",
            "type": "INT(11)",
            "fieldClass": "Risk Factor",
            "idModel": 105,
            "createdTS": "2017-01-19 16:10:32.0",
            "insertable": true,
            "rollup": false,
            "physicalName": "risk1_enum",
            "createdBy": 1,
            "atomic": true,
            "name": "risk1_enum",
            "formula": "",
            "idModelColumn": 1342,
            "modelTableidModelTable": 350
        },
        {
            "sub": false,
            "keyField": false,
            "virtual": false,
            "updatedBy": 1,
            "virtualOrder": false,
            "verified": false,
            "active": true,
            "description": "",
            "fieldKind": "Continuous",
            "updatedTS": "2017-01-23 15:34:35.0",
            "type": "SMALLINT(6)",
            "fieldClass": "Risk Factor",
            "idModel": 105,
            "createdTS": "2017-01-19 16:10:32.0",
            "insertable": true,
            "rollup": false,
            "physicalName": "risk2_enum",
            "createdBy": 1,
            "atomic": true,
            "name": "risk2_enum",
            "formula": "",
            "idModelColumn": 1343,
            "modelTableidModelTable": 350
        },
        {
            "sub": false,
            "keyField": false,
            "virtual": false,
            "updatedBy": 1,
            "virtualOrder": false,
            "verified": false,
            "active": true,
            "description": "",
            "fieldKind": "Continuous",
            "updatedTS": "2017-01-23 15:34:38.0",
            "type": "INT(11)",
            "fieldClass": "Risk Factor",
            "idModel": 105,
            "createdTS": "2017-01-19 16:10:32.0",
            "insertable": true,
            "rollup": false,
            "physicalName": "risk3_enum",
            "createdBy": 1,
            "atomic": true,
            "name": "risk3_enum",
            "formula": "",
            "idModelColumn": 1344,
            "modelTableidModelTable": 350
        },
        {
            "sub": false,
            "keyField": false,
            "virtual": false,
            "updatedBy": 1,
            "virtualOrder": false,
            "verified": false,
            "active": true,
            "description": "",
            "fieldKind": "Continuous",
            "updatedTS": "2017-01-19 16:12:05.0",
            "type": "INT(11)",
            "fieldClass": "Risk Factor",
            "idModel": 105,
            "createdTS": "2017-01-19 16:10:32.0",
            "insertable": true,
            "rollup": false,
            "physicalName": "age",
            "createdBy": 1,
            "atomic": true,
            "name": "age",
            "formula": "",
            "idModelColumn": 1345,
            "modelTableidModelTable": 350
        },
        {
            "sub": false,
            "keyField": false,
            "virtual": false,
            "updatedBy": 1,
            "virtualOrder": false,
            "verified": false,
            "active": true,
            "description": "",
            "fieldKind": "Continuous",
            "updatedTS": "2017-01-19 16:12:28.0",
            "type": "SMALLINT(6)",
            "fieldClass": "Risk Factor",
            "idModel": 105,
            "createdTS": "2017-01-19 16:10:32.0",
            "insertable": true,
            "rollup": false,
            "physicalName": "duration",
            "createdBy": 1,
            "atomic": true,
            "name": "duration",
            "formula": "",
            "idModelColumn": 1346,
            "modelTableidModelTable": 350
        },
        {
            "sub": false,
            "keyField": false,
            "virtual": false,
            "updatedBy": 1,
            "virtualOrder": false,
            "verified": false,
            "active": true,
            "description": "",
            "fieldKind": "Dichotomous",
            "updatedTS": "2017-01-19 16:12:36.0",
            "type": "SMALLINT(6)",
            "fieldClass": "Treatment",
            "idModel": 105,
            "createdTS": "2017-01-19 16:10:33.0",
            "insertable": true,
            "rollup": false,
            "physicalName": "treatment1",
            "createdBy": 1,
            "atomic": true,
            "name": "treatment1",
            "formula": "",
            "idModelColumn": 1347,
            "modelTableidModelTable": 350
        },
        {
            "sub": false,
            "keyField": false,
            "virtual": false,
            "updatedBy": 1,
            "virtualOrder": false,
            "verified": false,
            "active": true,
            "description": "",
            "fieldKind": "Dichotomous",
            "updatedTS": "2017-01-19 16:12:50.0",
            "type": "SMALLINT(6)",
            "fieldClass": "Treatment",
            "idModel": 105,
            "createdTS": "2017-01-19 16:10:33.0",
            "insertable": true,
            "rollup": false,
            "physicalName": "treatment2",
            "createdBy": 1,
            "atomic": true,
            "name": "treatment2",
            "formula": "",
            "idModelColumn": 1348,
            "modelTableidModelTable": 350
        },
        {
            "sub": false,
            "keyField": false,
            "virtual": false,
            "updatedBy": 1,
            "virtualOrder": false,
            "verified": false,
            "active": true,
            "description": "",
            "fieldKind": "Dichotomous",
            "updatedTS": "2017-01-19 16:13:35.0",
            "type": "SMALLINT(6)",
            "fieldClass": "Risk Factor",
            "idModel": 105,
            "createdTS": "2017-01-19 16:10:33.0",
            "insertable": true,
            "rollup": false,
            "physicalName": "duration_gt24",
            "createdBy": 1,
            "atomic": true,
            "name": "duration_gt24",
            "formula": "",
            "idModelColumn": 1349,
            "modelTableidModelTable": 350
        },
        {
            "sub": false,
            "keyField": false,
            "virtual": false,
            "updatedBy": 1,
            "virtualOrder": false,
            "verified": false,
            "active": true,
            "description": "",
            "fieldKind": "Dichotomous",
            "updatedTS": "2017-01-19 16:13:43.0",
            "type": "SMALLINT(6)",
            "fieldClass": "Risk Factor",
            "idModel": 105,
            "createdTS": "2017-01-19 16:10:33.0",
            "insertable": true,
            "rollup": false,
            "physicalName": "race1",
            "createdBy": 1,
            "atomic": true,
            "name": "race1",
            "formula": "",
            "idModelColumn": 1350,
            "modelTableidModelTable": 350
        },
        {
            "sub": false,
            "keyField": false,
            "virtual": false,
            "updatedBy": 1,
            "virtualOrder": false,
            "verified": false,
            "active": true,
            "description": "",
            "fieldKind": "Dichotomous",
            "updatedTS": "2017-01-19 16:13:54.0",
            "type": "SMALLINT(6)",
            "fieldClass": "Risk Factor",
            "idModel": 105,
            "createdTS": "2017-01-19 16:10:33.0",
            "insertable": true,
            "rollup": false,
            "physicalName": "race2",
            "createdBy": 1,
            "atomic": true,
            "name": "race2",
            "formula": "",
            "idModelColumn": 1351,
            "modelTableidModelTable": 350
        },
        {
            "sub": false,
            "keyField": false,
            "virtual": false,
            "updatedBy": 1,
            "virtualOrder": false,
            "verified": false,
            "active": true,
            "description": "",
            "fieldKind": "Dichotomous",
            "updatedTS": "2017-01-19 16:14:02.0",
            "type": "SMALLINT(6)",
            "fieldClass": "Risk Factor",
            "idModel": 105,
            "createdTS": "2017-01-19 16:10:33.0",
            "insertable": true,
            "rollup": false,
            "physicalName": "race3",
            "createdBy": 1,
            "atomic": true,
            "name": "race3",
            "formula": "",
            "idModelColumn": 1352,
            "modelTableidModelTable": 350
        },
        {
            "sub": false,
            "keyField": false,
            "virtual": false,
            "updatedBy": 1,
            "virtualOrder": false,
            "verified": false,
            "active": true,
            "description": "",
            "fieldKind": "Dichotomous",
            "updatedTS": "2017-01-19 16:14:09.0",
            "type": "SMALLINT(6)",
            "fieldClass": "Risk Factor",
            "idModel": 105,
            "createdTS": "2017-01-19 16:10:33.0",
            "insertable": true,
            "rollup": false,
            "physicalName": "race4",
            "createdBy": 1,
            "atomic": true,
            "name": "race4",
            "formula": "",
            "idModelColumn": 1353,
            "modelTableidModelTable": 350
        },
        {
            "sub": false,
            "keyField": false,
            "virtual": false,
            "updatedBy": 1,
            "virtualOrder": false,
            "verified": false,
            "active": true,
            "description": "",
            "fieldKind": "Dichotomous",
            "updatedTS": "2017-01-19 16:14:18.0",
            "type": "SMALLINT(6)",
            "fieldClass": "Risk Factor",
            "idModel": 105,
            "createdTS": "2017-01-19 16:10:33.0",
            "insertable": true,
            "rollup": false,
            "physicalName": "insurance1",
            "createdBy": 1,
            "atomic": true,
            "name": "insurance1",
            "formula": "",
            "idModelColumn": 1354,
            "modelTableidModelTable": 350
        },
        {
            "sub": false,
            "keyField": false,
            "virtual": false,
            "updatedBy": 1,
            "virtualOrder": false,
            "verified": false,
            "active": true,
            "description": "",
            "fieldKind": "Dichotomous",
            "updatedTS": "2017-01-19 16:14:28.0",
            "type": "SMALLINT(6)",
            "fieldClass": "Risk Factor",
            "idModel": 105,
            "createdTS": "2017-01-19 16:10:32.0",
            "insertable": true,
            "rollup": false,
            "physicalName": "insurance2",
            "createdBy": 1,
            "atomic": true,
            "name": "insurance2",
            "formula": "",
            "idModelColumn": 1355,
            "modelTableidModelTable": 350
        },
        {
            "sub": false,
            "keyField": false,
            "virtual": false,
            "updatedBy": 1,
            "virtualOrder": false,
            "verified": false,
            "active": true,
            "description": "",
            "fieldKind": "Dichotomous",
            "updatedTS": "2017-01-19 16:14:40.0",
            "type": "SMALLINT(6)",
            "fieldClass": "Risk Factor",
            "idModel": 105,
            "createdTS": "2017-01-19 16:10:33.0",
            "insertable": true,
            "rollup": false,
            "physicalName": "insurance3",
            "createdBy": 1,
            "atomic": true,
            "name": "insurance3",
            "formula": "",
            "idModelColumn": 1356,
            "modelTableidModelTable": 350
        },
        {
            "sub": false,
            "keyField": false,
            "virtual": false,
            "updatedBy": 1,
            "virtualOrder": false,
            "verified": false,
            "active": true,
            "description": "",
            "fieldKind": "Dichotomous",
            "updatedTS": "2017-01-19 16:14:48.0",
            "type": "SMALLINT(6)",
            "fieldClass": "Risk Factor",
            "idModel": 105,
            "createdTS": "2017-01-19 16:10:33.0",
            "insertable": true,
            "rollup": false,
            "physicalName": "insurance4",
            "createdBy": 1,
            "atomic": true,
            "name": "insurance4",
            "formula": "",
            "idModelColumn": 1357,
            "modelTableidModelTable": 350
        },
        {
            "sub": false,
            "keyField": false,
            "virtual": false,
            "updatedBy": 1,
            "virtualOrder": false,
            "verified": false,
            "active": true,
            "description": "",
            "fieldKind": "Dichotomous",
            "updatedTS": "2017-01-19 16:15:03.0",
            "type": "SMALLINT(6)",
            "fieldClass": "Risk Factor",
            "idModel": 105,
            "createdTS": "2017-01-19 16:10:33.0",
            "insertable": true,
            "rollup": false,
            "physicalName": "risk4_dich",
            "createdBy": 1,
            "atomic": true,
            "name": "risk4_dich",
            "formula": "",
            "idModelColumn": 1358,
            "modelTableidModelTable": 350
        },
        {
            "sub": false,
            "keyField": false,
            "virtual": false,
            "updatedBy": 1,
            "virtualOrder": false,
            "verified": false,
            "active": true,
            "description": "",
            "fieldKind": "Dichotomous",
            "updatedTS": "2017-01-19 16:15:10.0",
            "type": "SMALLINT(6)",
            "fieldClass": "Risk Factor",
            "idModel": 105,
            "createdTS": "2017-01-19 16:10:33.0",
            "insertable": true,
            "rollup": false,
            "physicalName": "risk5_dich",
            "createdBy": 1,
            "atomic": true,
            "name": "risk5_dich",
            "formula": "",
            "idModelColumn": 1359,
            "modelTableidModelTable": 350
        },
        {
            "sub": false,
            "keyField": false,
            "virtual": false,
            "updatedBy": 1,
            "virtualOrder": false,
            "verified": false,
            "active": true,
            "description": "",
            "fieldKind": "Dichotomous",
            "updatedTS": "2017-01-19 16:15:17.0",
            "type": "SMALLINT(6)",
            "fieldClass": "Risk Factor",
            "idModel": 105,
            "createdTS": "2017-01-19 16:10:33.0",
            "insertable": true,
            "rollup": false,
            "physicalName": "risk6_dich",
            "createdBy": 1,
            "atomic": true,
            "name": "risk6_dich",
            "formula": "",
            "idModelColumn": 1360,
            "modelTableidModelTable": 350
        },
        {
            "sub": false,
            "keyField": false,
            "virtual": false,
            "updatedBy": 1,
            "virtualOrder": false,
            "verified": false,
            "active": true,
            "description": "",
            "fieldKind": "Continuous",
            "updatedTS": "2017-01-19 16:15:30.0",
            "type": "SMALLINT(6)",
            "fieldClass": "Risk Factor",
            "idModel": 105,
            "createdTS": "2017-01-19 16:10:33.0",
            "insertable": true,
            "rollup": false,
            "physicalName": "month",
            "createdBy": 1,
            "atomic": true,
            "name": "month",
            "formula": "",
            "idModelColumn": 1361,
            "modelTableidModelTable": 350
        },
        {
            "sub": false,
            "keyField": false,
            "virtual": false,
            "updatedBy": 1,
            "virtualOrder": false,
            "verified": false,
            "active": true,
            "description": "",
            "fieldKind": "Dichotomous",
            "updatedTS": "2017-01-19 16:15:47.0",
            "type": "SMALLINT(6)",
            "fieldClass": "Outcome",
            "idModel": 105,
            "createdTS": "2017-01-19 16:10:33.0",
            "insertable": true,
            "rollup": false,
            "physicalName": "outcome1",
            "createdBy": 1,
            "atomic": true,
            "name": "outcome1",
            "formula": "",
            "idModelColumn": 1362,
            "modelTableidModelTable": 350
        },
        {
            "sub": false,
            "keyField": true,
            "virtual": false,
            "updatedBy": 1,
            "virtualOrder": false,
            "verified": false,
            "active": true,
            "description": "",
            "fieldKind": "Continuous",
            "updatedTS": "2017-01-19 16:17:40.0",
            "type": "VARCHAR(50)",
            "fieldClass": "Case ID",
            "idModel": 105,
            "createdTS": "2017-01-19 16:10:33.0",
            "insertable": true,
            "rollup": false,
            "physicalName": "caseid",
            "createdBy": 1,
            "atomic": true,
            "name": "caseid",
            "formula": "",
            "idModelColumn": 1363,
            "modelTableidModelTable": 350
        },
        {
            "sub": false,
            "keyField": false,
            "virtual": true,
            "updatedBy": 1,
            "virtualOrder": false,
            "verified": true,
            "active": true,
            "description": "duration >=12",
            "fieldKind": "Dichotomous",
            "updatedTS": "2017-01-23 13:15:36.0",
            "type": "INTEGER(11)",
            "fieldClass": "Risk Factor",
            "idModel": 105,
            "createdTS": "2017-01-23 13:15:25.0",
            "insertable": true,
            "rollup": false,
            "physicalName": "virtual",
            "createdBy": 1,
            "atomic": false,
            "name": "durationgte12",
            "formula": "duration>=12",
            "idModelColumn": 1365,
            "modelTableidModelTable": 350
        },
        {
            "sub": false,
            "keyField": false,
            "virtual": false,
            "updatedBy": 1,
            "virtualOrder": false,
            "verified": false,
            "active": true,
            "description": "",
            "fieldKind": "Date",
            "updatedTS": "2017-01-23 14:27:18.0",
            "type": "DATE",
            "fieldClass": "Sequencer",
            "idModel": 105,
            "createdTS": "2017-01-23 14:27:07.0",
            "insertable": true,
            "rollup": false,
            "physicalName": "ctrdate",
            "createdBy": 1,
            "atomic": true,
            "name": "ctrdate",
            "formula": "",
            "idModelColumn": 1367,
            "modelTableidModelTable": 350
        }
    ],
    "modelTableRelationships": []
}